project_26.sim/sim_1/behav/xsim/beat.vcd
$date
   Tue Jul  1 22:19:49 2025
$end
$version
  2020.2
$end
$timescale
  1ps
$end
$scope module tb_beat $end
$var reg 1 ! clk $end
$var reg 1 " rst $end
$var wire 8 # bpm [7:0] $end
$var wire 8 $ hrv [7:0] $end
$var wire 8 % avg [7:0] $end
$var wire 8 & irr [7:0] $end
$var wire 1 ' show_result $end
$scope module dut $end
$var wire 1 ( clk $end
$var wire 1 ) rst $end
$var reg 8 * bpm [7:0] $end
$var reg 8 + hrv [7:0] $end
$var reg 8 , avg [7:0] $end
$var reg 8 - irr [7:0] $end
$var reg 1 . show_result $end
$var reg 4 / state [3:0] $end
$var reg 6 0 index [5:0] $end
$var reg 6 1 addr [5:0] $end
$var reg 8 2 a [7:0] $end
$var reg 8 3 b [7:0] $end
$var reg 2 4 opcode [1:0] $end
$var reg 1 5 we $end
$var reg 8 6 alu_a [7:0] $end
$var reg 8 7 alu_b [7:0] $end
$var wire 8 8 ram_dout [7:0] $end
$var wire 8 9 alu_result [7:0] $end
$var wire 1 : alu_flag $end
$var wire 1 ; alu_valid $end
$scope module mem_inst $end
$var wire 1 ( clk $end
$var wire 1 < we $end
$var wire 1 ) rst $end
$var wire 6 = addr [5:0] $end
$var wire 8 > din [7:0] $end
$var reg 8 ? dout [7:0] $end
$upscope $end
$scope module alu_inst $end
$var wire 1 ( clk $end
$var wire 1 ) rst $end
$var wire 8 @ a [7:0] $end
$var wire 8 A b [7:0] $end
$var wire 2 B opcode [1:0] $end
$var reg 8 C result [7:0] $end
$var reg 1 D flag $end
$var reg 1 E valid_out $end
$var reg 8 F a_reg [7:0] $end
$var reg 8 G b_reg [7:0] $end
$var reg 2 H opcode_reg [1:0] $end
$var reg 8 I alu_result_stage2 [7:0] $end
$var reg 1 J flag_stage2 $end
$var reg 2 K stage_counter [1:0] $end
$var parameter 2 L OP_BPM [1:0] $end
$var parameter 2 M OP_HRV [1:0] $end
$var parameter 2 N OP_AVG [1:0] $end
$var parameter 2 O OP_IRR [1:0] $end
$upscope $end
$upscope $end
$upscope $end
$enddefinitions $end
#0
$dumpvars
0!
1"
b0 #
b0 $
b0 %
b0 &
0'
0(
1)
b0 *
b0 +
b0 ,
b0 -
0.
b0 /
b0 0
b0 1
b0 2
b0 3
b0 4
05
b0 6
b0 7
bx 8
b0 9
0:
0;
0<
b0 =
b0 >
bx ?
b0 @
b0 A
b0 B
b0 C
0D
0E
b0 F
b0 G
b0 H
b0 I
0J
b0 K
b0 L
b1 M
b10 N
b11 O
$end
#5000
1!
1(
b0 8
b0 ?
#10000
0!
0(
#15000
1!
1(
#20000
0!
0"
0(
0)
#25000
1!
1(
b1 /
b1010101 8
b1010101 ?
b1 K
#30000
0!
0(
#35000
1!
1(
b10 /
1J
b10 K
#40000
0!
0(
#45000
1!
1(
b11 /
b1 1
b1010101 2
1:
1;
b1 =
1D
1E
b0 K
#50000
0!
0(
#55000
1!
1(
b100 /
b1011110 8
0;
b1011110 ?
0E
b1 K
#60000
0!
0(
#65000
1!
1(
b101 /
b1011110 3
b10 K
#70000
0!
0(
#75000
1!
1(
b110 /
b1010101 6
b1011110 7
1;
b1010101 @
b1011110 A
1E
b0 K
#80000
0!
0(
#85000
1!
1(
b111 /
0;
0E
b1010101 F
b1011110 G
b1 K
#90000
0!
0(
#95000
1!
1(
b1000 /
b1 4
b1 B
b1000110 I
0J
b10 K
#100000
0!
0(
#105000
1!
1(
b1000110 9
0:
1;
b1000110 C
0D
1E
b0 K
#110000
0!
0(
#115000
1!
b1000110 $
1(
b1000110 +
b1001 /
0;
0E
b1 H
b1 K
#120000
0!
0(
#125000
1!
1(
b1010 /
b10 4
b10 B
b1001 I
b10 K
#130000
0!
0(
#135000
1!
1(
b1001 9
1;
b1001 C
1E
b0 K
#140000
0!
0(
#145000
1!
b1001 %
1(
b1001 ,
b1011 /
0;
0E
b10 H
b1 K
#150000
0!
0(
#155000
1!
1(
b1100 /
b11 4
b11 B
b1011001 I
b10 K
#160000
0!
0(
#165000
1!
1(
b1011001 9
1;
b1011001 C
1E
b0 K
#170000
0!
0(
#175000
1!
b1011001 &
1'
1(
b1011001 -
1.
b1101 /
0;
0E
b11 H
b1 K
#180000
0!
0(
#185000
1!
0'
1(
0.
b0 /
b10 0
b1001 I
1J
b10 K
#190000
0!
0(
#195000
1!
1(
b1 /
b10 1
b1001 9
1:
1;
b10 =
b1001 C
1D
1E
b0 K
#200000
0!
0(
#205000
1!
1(
b10 /
b1001110 8
0;
b1001110 ?
0E
b1 K
#210000
0!
0(
#215000
1!
1(
b11 /
b11 1
b1001110 2
b11 =
0J
b10 K
#220000
0!
0(
#225000
1!
1(
b100 /
b111000 8
0:
1;
b111000 ?
0D
1E
b0 K
#230000
0!
0(
#235000
1!
1(
b101 /
b111000 3
0;
0E
b1 K
#240000
0!
0(
#245000
1!
1(
b110 /
b0 4
b1001110 6
b111000 7
b1001110 @
b111000 A
b0 B
b10 K
#250000
0!
0(
#255000
1!
1(
1;
1E
b0 K
#260000
0!
0(
#265000
1!
b1001 #
1(
b1001 *
b111 /
0;
0E
b1001110 F
b111000 G
b0 H
b1 K
#270000
0!
0(
#275000
1!
1(
b1000 /
b1 4
b1 B
b1001100 I
b10 K
#280000
0!
0(
#285000
1!
1(
b1001100 9
1;
b1001100 C
1E
b0 K
#290000
0!
0(
#295000
1!
b1001100 $
1(
b1001100 +
b1001 /
0;
0E
b1 H
b1 K
#300000
0!
0(
#305000
1!
1(
b1010 /
b10 4
b10 B
b10110 I
b10 K
#310000
0!
0(
#315000
1!
1(
b10110 9
1;
b10110 C
1E
b0 K
#320000
0!
0(
#325000
1!
b10110 %
1(
b10110 ,
b1011 /
0;
0E
b10 H
b1 K
#330000
0!
0(
#335000
1!
1(
b1100 /
b11 4
b11 B
b1000011 I
b10 K
#340000
0!
0(
#345000
1!
1(
b1000011 9
1;
b1000011 C
1E
b0 K
#350000
0!
0(
#355000
1!
b1000011 &
1'
1(
b1000011 -
1.
b1101 /
0;
0E
b11 H
b1 K
#360000
0!
0(
#365000
1!
0'
1(
0.
b0 /
b100 0
b10110 I
1J
b10 K
#370000
0!
0(
#375000
1!
1(
b1 /
b100 1
b10110 9
1:
1;
b100 =
b10110 C
1D
1E
b0 K
#380000
0!
0(
#385000
1!
1(
b10 /
b1111000 8
0;
b1111000 ?
0E
b1 K
#390000
0!
0(
#395000
1!
1(
b11 /
b101 1
b1111000 2
b101 =
b10 K
#400000
0!
0(
#405000
1!
1(
b100 /
b1000001 8
1;
b1000001 ?
1E
b0 K
#410000
0!
0(
#415000
1!
1(
b101 /
b1000001 3
0;
0E
b1 K
#420000
0!
0(
#425000
1!
1(
b110 /
b0 4
b1111000 6
b1000001 7
b1111000 @
b1000001 A
b0 B
b10 K
#430000
0!
0(
#435000
1!
1(
1;
1E
b0 K
#440000
0!
0(
#445000
1!
b10110 #
1(
b10110 *
b111 /
0;
0E
b1111000 F
b1000001 G
b0 H
b1 K
#450000
0!
0(
#455000
1!
1(
b1000 /
b1 4
b1 B
b110010 I
0J
b10 K
#460000
0!
0(
#465000
1!
1(
b110010 9
0:
1;
b110010 C
0D
1E
b0 K
#470000
0!
0(
#475000
1!
b110010 $
1(
b110010 +
b1001 /
0;
0E
b1 H
b1 K
#480000
0!
0(
#485000
1!
1(
b1010 /
b10 4
b10 B
b110111 I
b10 K
#490000
0!
0(
#495000
1!
1(
b110111 9
1;
b110111 C
1E
b0 K
#500000
0!
0(
#505000
1!
b110111 %
1(
b110111 ,
b1011 /
0;
0E
b10 H
b1 K
#510000
0!
0(
#515000
1!
1(
b1100 /
b11 4
b11 B
b1011100 I
b10 K
#520000
0!
0(
#525000
1!
1(
b1011100 9
1;
b1011100 C
1E
b0 K
#530000
0!
0(
#535000
1!
b1011100 &
1'
1(
b1011100 -
1.
b1101 /
0;
0E
b11 H
b1 K
#540000
0!
0(
#545000
1!
0'
1(
0.
b0 /
b110 0
b110111 I
1J
b10 K
#550000
0!
0(
#555000
1!
1(
b1 /
b110 1
b110111 9
1:
1;
b110 =
b110111 C
1D
1E
b0 K
#560000
0!
0(
#565000
1!
1(
b10 /
bx 8
0;
bx ?
0E
b1 K
#570000
0!
0(
#575000
1!
1(
b11 /
b111 1
bx 2
b111 =
b10 K
#580000
0!
0(
#585000
1!
1(
b100 /
1;
1E
b0 K
#590000
0!
0(
#595000
1!
1(
b101 /
bx 3
0;
0E
b1 K
#600000
0!
0(
#605000
1!
1(
b110 /
b0 4
bx 6
bx 7
bx @
bx A
b0 B
b10 K
#610000
0!
0(
#615000
1!
1(
1;
1E
b0 K
#620000
0!
0(
#625000
1!
b110111 #
1(
b110111 *
b111 /
0;
0E
bx F
bx G
b0 H
b1 K
#630000
0!
0(
#635000
1!
1(
b1000 /
b1 4
b1 B
b0 I
b10 K
#640000
0!
0(
#645000
1!
1(
b0 9
1;
b0 C
1E
b0 K
#650000
0!
0(
#655000
1!
b0 $
1(
b0 +
b1001 /
0;
0E
b1 H
b1 K
#660000
0!
0(
#665000
1!
1(
b1010 /
b10 4
b10 B
bx I
b10 K
#670000
0!
0(
#675000
1!
1(
bx 9
1;
bx C
1E
b0 K
#680000
0!
0(
#685000
1!
bx %
1(
bx ,
b1011 /
0;
0E
b10 H
b1 K
#690000
0!
0(
#695000
1!
1(
b1100 /
b11 4
b11 B
b0xxxxxxx I
0J
b10 K
#700000
0!
0(
#705000
1!
1(
b0xxxxxxx 9
0:
1;
b0xxxxxxx C
0D
1E
b0 K
#710000
0!
0(
#715000
1!
b0xxxxxxx &
1'
1(
b0xxxxxxx -
1.
b1101 /
0;
0E
b11 H
b1 K
#720000
0!
0(
#725000
1!
0'
1(
0.
b0 /
b1000 0
bx I
xJ
b10 K
#730000
0!
0(
#735000
1!
1(
b1 /
b1000 1
bx 9
x:
1;
b1000 =
bx C
xD
1E
b0 K
#740000
0!
0(
#745000
1!
1(
b10 /
0;
0E
b1 K
#750000
0!
0(
#755000
1!
1(
b11 /
b1001 1
b1001 =
b10 K
#760000
0!
0(
#765000
1!
1(
b100 /
1;
1E
b0 K
#770000
0!
0(
#775000
1!
1(
b101 /
0;
0E
b1 K
#780000
0!
0(
#785000
1!
1(
b110 /
b0 4
b0 B
b10 K
#790000
0!
0(
#795000
1!
1(
1;
1E
b0 K
#800000
0!
0(
#805000
1!
bx #
1(
bx *
b111 /
0;
0E
b0 H
b1 K
#810000
0!
0(
#815000
1!
1(
b1000 /
b1 4
b1 B
b0 I
1J
b10 K
#820000
0!
0(
#825000
1!
1(
b0 9
1:
1;
b0 C
1D
1E
b0 K
#830000
0!
0(
#835000
1!
1(
b1001 /
0;
0E
b1 H
b1 K
#840000
0!
0(
#845000
1!
1(
b1010 /
b10 4
b10 B
bx I
b10 K
#850000
0!
0(
#855000
1!
1(
bx 9
1;
bx C
1E
b0 K
#860000
0!
0(
#865000
1!
1(
b1011 /
0;
0E
b10 H
b1 K
#870000
0!
0(
#875000
1!
1(
b1100 /
b11 4
b11 B
b0xxxxxxx I
0J
b10 K
#880000
0!
0(
#885000
1!
1(
b0xxxxxxx 9
0:
1;
b0xxxxxxx C
0D
1E
b0 K
#890000
0!
0(
#895000
1!
1'
1(
1.
b1101 /
0;
0E
b11 H
b1 K
#900000
0!
0(
#905000
1!
0'
1(
0.
b0 /
b1010 0
bx I
xJ
b10 K
#910000
0!
0(
#915000
1!
1(
b1 /
b1010 1
bx 9
x:
1;
b1010 =
bx C
xD
1E
b0 K
#920000
0!
0(
#925000
1!
1(
b10 /
0;
0E
b1 K
#930000
0!
0(
#935000
1!
1(
b11 /
b1011 1
b1011 =
b10 K
#940000
0!
0(
#945000
1!
1(
b100 /
1;
1E
b0 K
#950000
0!
0(
#955000
1!
1(
b101 /
0;
0E
b1 K
#960000
0!
0(
#965000
1!
1(
b110 /
b0 4
b0 B
b10 K
#970000
0!
0(
#975000
1!
1(
1;
1E
b0 K
#980000
0!
0(
#985000
1!
1(
b111 /
0;
0E
b0 H
b1 K
#990000
0!
0(
#995000
1!
1(
b1000 /
b1 4
b1 B
b0 I
1J
b10 K
